Project_2/layered_testbench/layered_testbench/transcript
# //  Questa Sim-64
# //  Version 2019.4_2 linux_x86_64 Dec  7 2019
# //
# //  Copyright 1991-2019 Mentor Graphics Corporation
# //  All Rights Reserved.
# //
# //  QuestaSim and its associated documentation contain trade
# //  secrets and commercial or financial information that are the property of
# //  Mentor Graphics Corporation and are privileged, confidential,
# //  and exempt from disclosure under the Freedom of Information Act,
# //  5 U.S.C. Section 552. Furthermore, this information
# //  is prohibited from disclosure under the Trade Secrets Act,
# //  18 U.S.C. Section 1905.
# //
# vsim -sv_seed 1234567890 -do "do wave.do;run -a" "+GEN_TRANS_TYPE=abc_random_statistics_transaction" optimized_debug_top_tb 
# Start time: 16:43:21 on Feb 02,2020
# Loading sv_std.std
# Loading work.abc_if(fast)
# Loading work.ncsu_pkg(fast)
# Loading work.abc_pkg(fast)
# Loading work.first_project_pkg(fast)
# Loading work.top(fast)
# Loading work.abc_if(fast)
# Loading work.abc_if(fast__1)
# Loading work.first_dut(fast)
# do wave.do
# run -a
# ----------------------------------------------------------------
# //  NCSU Package 
# //  Version 1.0a
# ----------------------------------------------------------------
# 
# 
# NCSU_INFO:Time                    0:ncsu_component::build():  of tst.env.p0_agent.driver called
# NCSU_INFO:Time                    0:ncsu_component::build():  of tst.env.p0_agent.monitor called
# NCSU_INFO:Time                    0:ncsu_component::build():  of tst.env.p1_agent.driver called
# NCSU_INFO:Time                    0:ncsu_component::build():  of tst.env.p1_agent.monitor called
# NCSU_INFO:Time                    0:ncsu_component::build():  of tst.env.pred called
# NCSU_INFO:Time                    0:ncsu_component::build():  of tst.env.scbd called
# NCSU_INFO:Time                    0:ncsu_component::build():  of tst.env.coverage called
# first_project_pkg.generator.new found +GEN_TRANS_TYPE=abc_random_statistics_transaction
# tst.env.p0_agent.driver name: abc_random_statistics_transaction transaction_count: 0 header:0x2200000000000032 payload:0x'{2246875862741215875, 18309273633514766295, 17836328702888759647, 127731203340613027, 13259283228751555162, 4814715860877924278, 12934844110960054725, 2855676247034575845} trailer:0x0000000000000000 delay:31
# tst.gen name: abc_random_statistics_transaction transaction_count: 0 header:0x2200000000000032 payload:0x'{2246875862741215875, 18309273633514766295, 17836328702888759647, 127731203340613027, 13259283228751555162, 4814715860877924278, 12934844110960054725, 2855676247034575845} trailer:0x0000000000000000 delay:31
# tst.env.p0_agent.driver name: abc_random_statistics_transaction transaction_count: 3 header:0x2200000000000016 payload:0x'{12171559094488971259, 9295153970599556313, 5306762494918393511, 3280786837437042895, 13165548798815898762, 12213133054838329840, 8017997137309839476, 7357631099442426293} trailer:0x0000000000000000 delay:12
# tst.env.p0_agent.monitor abc_monitor::run() header 0x2200000000000032 payload 0x'{2246875862741215875, 18309273633514766295, 17836328702888759647, 127731203340613027, 13259283228751555162, 4814715860877924278, 12934844110960054725, 2855676247034575845} trailer 0x0000000000000000 delay 0x1f
# tst.env.coverage name: monitored_trans transaction_count: 2 header:0x2200000000000032 payload:0x'{2246875862741215875, 18309273633514766295, 17836328702888759647, 127731203340613027, 13259283228751555162, 4814715860877924278, 12934844110960054725, 2855676247034575845} trailer:0x0000000000000000 delay:31
# tst.env.pred name: monitored_trans transaction_count: 2 header:0x2200000000000032 payload:0x'{2246875862741215875, 18309273633514766295, 17836328702888759647, 127731203340613027, 13259283228751555162, 4814715860877924278, 12934844110960054725, 2855676247034575845} trailer:0x0000000000000000 delay:31
# tst.env.scbd nb_transport: expected transaction name: monitored_trans transaction_count: 2 header:0x2200000000000032 payload:0x'{2246875862741215875, 18309273633514766295, 17836328702888759647, 127731203340613027, 13259283228751555162, 4814715860877924278, 12934844110960054725, 2855676247034575845} trailer:0x0000000000000000 delay:31
# tst.env.p1_agent.monitor abc_monitor::run() header 0x2200000000000032 payload 0x'{2246875862741215875, 18309273633514766295, 17836328702888759647, 127731203340613027, 13259283228751555162, 4814715860877924278, 12934844110960054725, 2855676247034575845} trailer 0x0000000000000000 delay 0x21
# tst.env.scbd nb_put: actual transaction name: monitored_trans transaction_count: 1 header:0x2200000000000032 payload:0x'{2246875862741215875, 18309273633514766295, 17836328702888759647, 127731203340613027, 13259283228751555162, 4814715860877924278, 12934844110960054725, 2855676247034575845} trailer:0x0000000000000000 delay:33
# tst.env.scbd abc_transaction MATCH!
# tst.env.p0_agent.monitor abc_monitor::run() header 0x2200000000000016 payload 0x'{12171559094488971259, 9295153970599556313, 5306762494918393511, 3280786837437042895, 13165548798815898762, 12213133054838329840, 8017997137309839476, 7357631099442426293} trailer 0x0000000000000000 delay 0x0c
# tst.env.coverage name: monitored_trans transaction_count: 4 header:0x2200000000000016 payload:0x'{12171559094488971259, 9295153970599556313, 5306762494918393511, 3280786837437042895, 13165548798815898762, 12213133054838329840, 8017997137309839476, 7357631099442426293} trailer:0x0000000000000000 delay:12
# tst.env.pred name: monitored_trans transaction_count: 4 header:0x2200000000000016 payload:0x'{12171559094488971259, 9295153970599556313, 5306762494918393511, 3280786837437042895, 13165548798815898762, 12213133054838329840, 8017997137309839476, 7357631099442426293} trailer:0x0000000000000000 delay:12
# tst.env.scbd nb_transport: expected transaction name: monitored_trans transaction_count: 4 header:0x2200000000000016 payload:0x'{12171559094488971259, 9295153970599556313, 5306762494918393511, 3280786837437042895, 13165548798815898762, 12213133054838329840, 8017997137309839476, 7357631099442426293} trailer:0x0000000000000000 delay:12
# tst.gen name: abc_random_statistics_transaction transaction_count: 3 header:0x2200000000000016 payload:0x'{12171559094488971259, 9295153970599556313, 5306762494918393511, 3280786837437042895, 13165548798815898762, 12213133054838329840, 8017997137309839476, 7357631099442426293} trailer:0x0000000000000000 delay:12
# tst.env.p0_agent.driver name: abc_random_statistics_transaction transaction_count: 7 header:0x2200000000000016 payload:0x'{1513826819962979322, 10559666770082256373, 14708426726235192517, 11379351483685954741, 18069593528275223460, 13565363230250698595, 14642912461713561904, 3359152444688253870} trailer:0x0000000000000000 delay:58
# tst.env.p1_agent.monitor abc_monitor::run() header 0x2200000000000016 payload 0x'{12171559094488971259, 9295153970599556313, 5306762494918393511, 3280786837437042895, 13165548798815898762, 12213133054838329840, 8017997137309839476, 7357631099442426293} trailer 0x0000000000000000 delay 0x0c
# tst.env.scbd nb_put: actual transaction name: monitored_trans transaction_count: 5 header:0x2200000000000016 payload:0x'{12171559094488971259, 9295153970599556313, 5306762494918393511, 3280786837437042895, 13165548798815898762, 12213133054838329840, 8017997137309839476, 7357631099442426293} trailer:0x0000000000000000 delay:12
# tst.env.scbd abc_transaction MATCH!
# tst.gen name: abc_random_statistics_transaction transaction_count: 7 header:0x2200000000000016 payload:0x'{1513826819962979322, 10559666770082256373, 14708426726235192517, 11379351483685954741, 18069593528275223460, 13565363230250698595, 14642912461713561904, 3359152444688253870} trailer:0x0000000000000000 delay:58
# tst.env.p0_agent.driver name: abc_random_statistics_transaction transaction_count: 9 header:0x2100000000000008 payload:0x'{12235532211187982031, 18235405009383152828, 14263116646349940669, 9513967301161238542, 1191912663181016722, 6422727957872091359, 9495795339344813955, 2031170073683098362} trailer:0x0000000000000000 delay:42
# tst.env.p0_agent.monitor abc_monitor::run() header 0x2200000000000016 payload 0x'{1513826819962979322, 10559666770082256373, 14708426726235192517, 11379351483685954741, 18069593528275223460, 13565363230250698595, 14642912461713561904, 3359152444688253870} trailer 0x0000000000000000 delay 0x3a
# tst.env.coverage name: monitored_trans transaction_count: 6 header:0x2200000000000016 payload:0x'{1513826819962979322, 10559666770082256373, 14708426726235192517, 11379351483685954741, 18069593528275223460, 13565363230250698595, 14642912461713561904, 3359152444688253870} trailer:0x0000000000000000 delay:58
# tst.env.pred name: monitored_trans transaction_count: 6 header:0x2200000000000016 payload:0x'{1513826819962979322, 10559666770082256373, 14708426726235192517, 11379351483685954741, 18069593528275223460, 13565363230250698595, 14642912461713561904, 3359152444688253870} trailer:0x0000000000000000 delay:58
# tst.env.scbd nb_transport: expected transaction name: monitored_trans transaction_count: 6 header:0x2200000000000016 payload:0x'{1513826819962979322, 10559666770082256373, 14708426726235192517, 11379351483685954741, 18069593528275223460, 13565363230250698595, 14642912461713561904, 3359152444688253870} trailer:0x0000000000000000 delay:58
# tst.env.p1_agent.monitor abc_monitor::run() header 0x2200000000000016 payload 0x'{1513826819962979322, 10559666770082256373, 14708426726235192517, 11379351483685954741, 18069593528275223460, 13565363230250698595, 14642912461713561904, 3359152444688253870} trailer 0x0000000000000000 delay 0x3a
# tst.env.scbd nb_put: actual transaction name: monitored_trans transaction_count: 8 header:0x2200000000000016 payload:0x'{1513826819962979322, 10559666770082256373, 14708426726235192517, 11379351483685954741, 18069593528275223460, 13565363230250698595, 14642912461713561904, 3359152444688253870} trailer:0x0000000000000000 delay:58
# tst.env.scbd abc_transaction MATCH!
# tst.env.p0_agent.monitor abc_monitor::run() header 0x2100000000000008 payload 0x'{12235532211187982031, 18235405009383152828, 14263116646349940669, 9513967301161238542, 1191912663181016722, 6422727957872091359, 9495795339344813955, 2031170073683098362} trailer 0x0000000000000000 delay 0x2a
# tst.env.coverage name: monitored_trans transaction_count: 10 header:0x2100000000000008 payload:0x'{12235532211187982031, 18235405009383152828, 14263116646349940669, 9513967301161238542, 1191912663181016722, 6422727957872091359, 9495795339344813955, 2031170073683098362} trailer:0x0000000000000000 delay:42
# tst.env.pred name: monitored_trans transaction_count: 10 header:0x2100000000000008 payload:0x'{12235532211187982031, 18235405009383152828, 14263116646349940669, 9513967301161238542, 1191912663181016722, 6422727957872091359, 9495795339344813955, 2031170073683098362} trailer:0x0000000000000000 delay:42
# tst.env.scbd nb_transport: expected transaction name: monitored_trans transaction_count: 10 header:0x2100000000000008 payload:0x'{12235532211187982031, 18235405009383152828, 14263116646349940669, 9513967301161238542, 1191912663181016722, 6422727957872091359, 9495795339344813955, 2031170073683098362} trailer:0x0000000000000000 delay:42
# tst.gen name: abc_random_statistics_transaction transaction_count: 9 header:0x2100000000000008 payload:0x'{12235532211187982031, 18235405009383152828, 14263116646349940669, 9513967301161238542, 1191912663181016722, 6422727957872091359, 9495795339344813955, 2031170073683098362} trailer:0x0000000000000000 delay:42
# tst.env.p0_agent.driver name: abc_random_statistics_transaction transaction_count: 13 header:0x2400000000000004 payload:0x'{17342004083475352572, 11425649902999232420, 13574278109616221901, 6328574800146016494, 17890303746140095991, 299452060110416724, 16629861523952230579, 4658097916965164370} trailer:0xa5a5a5a5c3c3c3c3 delay:36
# tst.env.p1_agent.monitor abc_monitor::run() header 0x2100000000000008 payload 0x'{12235532211187982031, 18235405009383152828, 14263116646349940669, 9513967301161238542, 1191912663181016722, 6422727957872091359, 9495795339344813955, 2031170073683098362} trailer 0x0000000000000000 delay 0x2a
# tst.env.scbd nb_put: actual transaction name: monitored_trans transaction_count: 11 header:0x2100000000000008 payload:0x'{12235532211187982031, 18235405009383152828, 14263116646349940669, 9513967301161238542, 1191912663181016722, 6422727957872091359, 9495795339344813955, 2031170073683098362} trailer:0x0000000000000000 delay:42
# tst.env.scbd abc_transaction MATCH!
# tst.gen name: abc_random_statistics_transaction transaction_count: 13 header:0x2400000000000004 payload:0x'{17342004083475352572, 11425649902999232420, 13574278109616221901, 6328574800146016494, 17890303746140095991, 299452060110416724, 16629861523952230579, 4658097916965164370} trailer:0xa5a5a5a5c3c3c3c3 delay:36
# tst.env.p0_agent.driver name: abc_random_statistics_transaction transaction_count: 15 header:0x2400000000000002 payload:0x'{6133064600364799454, 4162833566010824874, 4417267853544081442, 11986077907639992110, 7452058293304261047, 7667626753632296654, 3363666545508156002, 15505657930256908587} trailer:0xffffffffffffffff delay:59
# tst.env.p0_agent.monitor abc_monitor::run() header 0x2400000000000004 payload 0x'{17342004083475352572, 11425649902999232420, 13574278109616221901, 6328574800146016494, 17890303746140095991, 299452060110416724, 16629861523952230579, 4658097916965164370} trailer 0xa5a5a5a5c3c3c3c3 delay 0x24
# tst.env.coverage name: monitored_trans transaction_count: 12 header:0x2400000000000004 payload:0x'{17342004083475352572, 11425649902999232420, 13574278109616221901, 6328574800146016494, 17890303746140095991, 299452060110416724, 16629861523952230579, 4658097916965164370} trailer:0xa5a5a5a5c3c3c3c3 delay:36
# tst.env.pred name: monitored_trans transaction_count: 12 header:0x2400000000000004 payload:0x'{17342004083475352572, 11425649902999232420, 13574278109616221901, 6328574800146016494, 17890303746140095991, 299452060110416724, 16629861523952230579, 4658097916965164370} trailer:0xa5a5a5a5c3c3c3c3 delay:36
# tst.env.scbd nb_transport: expected transaction name: monitored_trans transaction_count: 12 header:0x2400000000000004 payload:0x'{17342004083475352572, 11425649902999232420, 13574278109616221901, 6328574800146016494, 17890303746140095991, 299452060110416724, 16629861523952230579, 4658097916965164370} trailer:0xa5a5a5a5c3c3c3c3 delay:36
# tst.env.p1_agent.monitor abc_monitor::run() header 0x2400000000000004 payload 0x'{17342004083475352572, 11425649902999232420, 13574278109616221901, 6328574800146016494, 17890303746140095991, 299452060110416724, 16629861523952230579, 4658097916965164370} trailer 0xa5a5a5a5c3c3c3c3 delay 0x24
# tst.env.scbd nb_put: actual transaction name: monitored_trans transaction_count: 14 header:0x2400000000000004 payload:0x'{17342004083475352572, 11425649902999232420, 13574278109616221901, 6328574800146016494, 17890303746140095991, 299452060110416724, 16629861523952230579, 4658097916965164370} trailer:0xa5a5a5a5c3c3c3c3 delay:36
# tst.env.scbd abc_transaction MATCH!
# tst.gen name: abc_random_statistics_transaction transaction_count: 15 header:0x2400000000000002 payload:0x'{6133064600364799454, 4162833566010824874, 4417267853544081442, 11986077907639992110, 7452058293304261047, 7667626753632296654, 3363666545508156002, 15505657930256908587} trailer:0xffffffffffffffff delay:59
# tst.env.p0_agent.driver name: abc_random_statistics_transaction transaction_count: 18 header:0x2200000000000032 payload:0x'{9955615497062330686, 10470709354440744289, 11718499459269830553, 746521466457724726, 7670275441241072371, 8670352163326156611, 5766251019559650116, 4566395294961772341} trailer:0x0000000000000000 delay:25
# tst.env.p0_agent.monitor abc_monitor::run() header 0x2400000000000002 payload 0x'{6133064600364799454, 4162833566010824874, 4417267853544081442, 11986077907639992110, 7452058293304261047, 7667626753632296654, 3363666545508156002, 15505657930256908587} trailer 0xffffffffffffffff delay 0x3b
# tst.env.coverage name: monitored_trans transaction_count: 16 header:0x2400000000000002 payload:0x'{6133064600364799454, 4162833566010824874, 4417267853544081442, 11986077907639992110, 7452058293304261047, 7667626753632296654, 3363666545508156002, 15505657930256908587} trailer:0xffffffffffffffff delay:59
# tst.env.pred name: monitored_trans transaction_count: 16 header:0x2400000000000002 payload:0x'{6133064600364799454, 4162833566010824874, 4417267853544081442, 11986077907639992110, 7452058293304261047, 7667626753632296654, 3363666545508156002, 15505657930256908587} trailer:0xffffffffffffffff delay:59
# tst.env.scbd nb_transport: expected transaction name: monitored_trans transaction_count: 16 header:0x2400000000000002 payload:0x'{6133064600364799454, 4162833566010824874, 4417267853544081442, 11986077907639992110, 7452058293304261047, 7667626753632296654, 3363666545508156002, 15505657930256908587} trailer:0xffffffffffffffff delay:59
# tst.env.p1_agent.monitor abc_monitor::run() header 0x2400000000000002 payload 0x'{6133064600364799454, 4162833566010824874, 4417267853544081442, 11986077907639992110, 7452058293304261047, 7667626753632296654, 3363666545508156002, 15505657930256908587} trailer 0xffffffffffffffff delay 0x3b
# tst.env.scbd nb_put: actual transaction name: monitored_trans transaction_count: 17 header:0x2400000000000002 payload:0x'{6133064600364799454, 4162833566010824874, 4417267853544081442, 11986077907639992110, 7452058293304261047, 7667626753632296654, 3363666545508156002, 15505657930256908587} trailer:0xffffffffffffffff delay:59
# tst.env.scbd abc_transaction MATCH!
# tst.gen name: abc_random_statistics_transaction transaction_count: 18 header:0x2200000000000032 payload:0x'{9955615497062330686, 10470709354440744289, 11718499459269830553, 746521466457724726, 7670275441241072371, 8670352163326156611, 5766251019559650116, 4566395294961772341} trailer:0x0000000000000000 delay:25
# tst.env.p0_agent.driver name: abc_random_statistics_transaction transaction_count: 21 header:0x2200000000000032 payload:0x'{16351254873805511493, 8061868125551364816, 12743300160520933950, 9555116425953320203, 8237570920624312296, 2770484936589600930, 13101989072889988294, 8214114321142729178} trailer:0x0000000000000000 delay:22
# tst.env.p0_agent.monitor abc_monitor::run() header 0x2200000000000032 payload 0x'{9955615497062330686, 10470709354440744289, 11718499459269830553, 746521466457724726, 7670275441241072371, 8670352163326156611, 5766251019559650116, 4566395294961772341} trailer 0x0000000000000000 delay 0x19
# tst.env.coverage name: monitored_trans transaction_count: 19 header:0x2200000000000032 payload:0x'{9955615497062330686, 10470709354440744289, 11718499459269830553, 746521466457724726, 7670275441241072371, 8670352163326156611, 5766251019559650116, 4566395294961772341} trailer:0x0000000000000000 delay:25
# tst.env.pred name: monitored_trans transaction_count: 19 header:0x2200000000000032 payload:0x'{9955615497062330686, 10470709354440744289, 11718499459269830553, 746521466457724726, 7670275441241072371, 8670352163326156611, 5766251019559650116, 4566395294961772341} trailer:0x0000000000000000 delay:25
# tst.env.scbd nb_transport: expected transaction name: monitored_trans transaction_count: 19 header:0x2200000000000032 payload:0x'{9955615497062330686, 10470709354440744289, 11718499459269830553, 746521466457724726, 7670275441241072371, 8670352163326156611, 5766251019559650116, 4566395294961772341} trailer:0x0000000000000000 delay:25
# tst.env.p1_agent.monitor abc_monitor::run() header 0x2200000000000032 payload 0x'{9955615497062330686, 10470709354440744289, 11718499459269830553, 746521466457724726, 7670275441241072371, 8670352163326156611, 5766251019559650116, 4566395294961772341} trailer 0x0000000000000000 delay 0x19
# tst.env.scbd nb_put: actual transaction name: monitored_trans transaction_count: 20 header:0x2200000000000032 payload:0x'{9955615497062330686, 10470709354440744289, 11718499459269830553, 746521466457724726, 7670275441241072371, 8670352163326156611, 5766251019559650116, 4566395294961772341} trailer:0x0000000000000000 delay:25
# tst.env.scbd abc_transaction MATCH!
# tst.env.p0_agent.monitor abc_monitor::run() header 0x2200000000000032 payload 0x'{16351254873805511493, 8061868125551364816, 12743300160520933950, 9555116425953320203, 8237570920624312296, 2770484936589600930, 13101989072889988294, 8214114321142729178} trailer 0x0000000000000000 delay 0x16
# tst.env.coverage name: monitored_trans transaction_count: 22 header:0x2200000000000032 payload:0x'{16351254873805511493, 8061868125551364816, 12743300160520933950, 9555116425953320203, 8237570920624312296, 2770484936589600930, 13101989072889988294, 8214114321142729178} trailer:0x0000000000000000 delay:22
# tst.env.pred name: monitored_trans transaction_count: 22 header:0x2200000000000032 payload:0x'{16351254873805511493, 8061868125551364816, 12743300160520933950, 9555116425953320203, 8237570920624312296, 2770484936589600930, 13101989072889988294, 8214114321142729178} trailer:0x0000000000000000 delay:22
# tst.env.scbd nb_transport: expected transaction name: monitored_trans transaction_count: 22 header:0x2200000000000032 payload:0x'{16351254873805511493, 8061868125551364816, 12743300160520933950, 9555116425953320203, 8237570920624312296, 2770484936589600930, 13101989072889988294, 8214114321142729178} trailer:0x0000000000000000 delay:22
# tst.gen name: abc_random_statistics_transaction transaction_count: 21 header:0x2200000000000032 payload:0x'{16351254873805511493, 8061868125551364816, 12743300160520933950, 9555116425953320203, 8237570920624312296, 2770484936589600930, 13101989072889988294, 8214114321142729178} trailer:0x0000000000000000 delay:22
# tst.env.p0_agent.driver name: abc_random_statistics_transaction transaction_count: 25 header:0x2400000000000001 payload:0x'{14453981975328531999, 3336790835227296794, 13810526002725112500, 5423532484089550230, 280977356133910918, 8091237426194641648, 2613608128935514651, 6102768563986643828} trailer:0x0000000000000000 delay:36
# tst.env.p1_agent.monitor abc_monitor::run() header 0x2200000000000032 payload 0x'{16351254873805511493, 8061868125551364816, 12743300160520933950, 9555116425953320203, 8237570920624312296, 2770484936589600930, 13101989072889988294, 8214114321142729178} trailer 0x0000000000000000 delay 0x16
# tst.env.scbd nb_put: actual transaction name: monitored_trans transaction_count: 23 header:0x2200000000000032 payload:0x'{16351254873805511493, 8061868125551364816, 12743300160520933950, 9555116425953320203, 8237570920624312296, 2770484936589600930, 13101989072889988294, 8214114321142729178} trailer:0x0000000000000000 delay:22
# tst.env.scbd abc_transaction MATCH!
# tst.gen name: abc_random_statistics_transaction transaction_count: 25 header:0x2400000000000001 payload:0x'{14453981975328531999, 3336790835227296794, 13810526002725112500, 5423532484089550230, 280977356133910918, 8091237426194641648, 2613608128935514651, 6102768563986643828} trailer:0x0000000000000000 delay:36
# tst.env.p0_agent.driver name: abc_random_statistics_transaction transaction_count: 27 header:0x2400000000000001 payload:0x'{4828833473981408341, 16173540040015210745, 12095690115171371489, 5866866930337851322, 12885716312367980692, 952349938692320384, 14498004661404568532, 15241366970807533400} trailer:0x0000000000000000 delay:23
# tst.env.p0_agent.monitor abc_monitor::run() header 0x2400000000000001 payload 0x'{14453981975328531999, 3336790835227296794, 13810526002725112500, 5423532484089550230, 280977356133910918, 8091237426194641648, 2613608128935514651, 6102768563986643828} trailer 0x0000000000000000 delay 0x24
# tst.env.coverage name: monitored_trans transaction_count: 24 header:0x2400000000000001 payload:0x'{14453981975328531999, 3336790835227296794, 13810526002725112500, 5423532484089550230, 280977356133910918, 8091237426194641648, 2613608128935514651, 6102768563986643828} trailer:0x0000000000000000 delay:36
# tst.env.pred name: monitored_trans transaction_count: 24 header:0x2400000000000001 payload:0x'{14453981975328531999, 3336790835227296794, 13810526002725112500, 5423532484089550230, 280977356133910918, 8091237426194641648, 2613608128935514651, 6102768563986643828} trailer:0x0000000000000000 delay:36
# tst.env.scbd nb_transport: expected transaction name: monitored_trans transaction_count: 24 header:0x2400000000000001 payload:0x'{14453981975328531999, 3336790835227296794, 13810526002725112500, 5423532484089550230, 280977356133910918, 8091237426194641648, 2613608128935514651, 6102768563986643828} trailer:0x0000000000000000 delay:36
# tst.env.p1_agent.monitor abc_monitor::run() header 0x2400000000000001 payload 0x'{14453981975328531999, 3336790835227296794, 13810526002725112500, 5423532484089550230, 280977356133910918, 8091237426194641648, 2613608128935514651, 6102768563986643828} trailer 0x0000000000000000 delay 0x24
# tst.env.scbd nb_put: actual transaction name: monitored_trans transaction_count: 26 header:0x2400000000000001 payload:0x'{14453981975328531999, 3336790835227296794, 13810526002725112500, 5423532484089550230, 280977356133910918, 8091237426194641648, 2613608128935514651, 6102768563986643828} trailer:0x0000000000000000 delay:36
# tst.env.scbd abc_transaction MATCH!
# tst.gen name: abc_random_statistics_transaction transaction_count: 27 header:0x2400000000000001 payload:0x'{4828833473981408341, 16173540040015210745, 12095690115171371489, 5866866930337851322, 12885716312367980692, 952349938692320384, 14498004661404568532, 15241366970807533400} trailer:0x0000000000000000 delay:23
# tst.env.p0_agent.monitor abc_monitor::run() header 0x2400000000000001 payload 0x'{4828833473981408341, 16173540040015210745, 12095690115171371489, 5866866930337851322, 12885716312367980692, 952349938692320384, 14498004661404568532, 15241366970807533400} trailer 0x0000000000000000 delay 0x17
# tst.env.coverage name: monitored_trans transaction_count: 28 header:0x2400000000000001 payload:0x'{4828833473981408341, 16173540040015210745, 12095690115171371489, 5866866930337851322, 12885716312367980692, 952349938692320384, 14498004661404568532, 15241366970807533400} trailer:0x0000000000000000 delay:23
# tst.env.pred name: monitored_trans transaction_count: 28 header:0x2400000000000001 payload:0x'{4828833473981408341, 16173540040015210745, 12095690115171371489, 5866866930337851322, 12885716312367980692, 952349938692320384, 14498004661404568532, 15241366970807533400} trailer:0x0000000000000000 delay:23
# tst.env.scbd nb_transport: expected transaction name: monitored_trans transaction_count: 28 header:0x2400000000000001 payload:0x'{4828833473981408341, 16173540040015210745, 12095690115171371489, 5866866930337851322, 12885716312367980692, 952349938692320384, 14498004661404568532, 15241366970807533400} trailer:0x0000000000000000 delay:23
# tst.env.p1_agent.monitor abc_monitor::run() header 0x2400000000000001 payload 0x'{4828833473981408341, 16173540040015210745, 12095690115171371489, 5866866930337851322, 12885716312367980692, 952349938692320384, 14498004661404568532, 15241366970807533400} trailer 0x0000000000000000 delay 0x17
# tst.env.scbd nb_put: actual transaction name: monitored_trans transaction_count: 29 header:0x2400000000000001 payload:0x'{4828833473981408341, 16173540040015210745, 12095690115171371489, 5866866930337851322, 12885716312367980692, 952349938692320384, 14498004661404568532, 15241366970807533400} trailer:0x0000000000000000 delay:23
# tst.env.scbd abc_transaction MATCH!
# ** Note: $finish    : top.sv(31)
#    Time: 4685 ns  Iteration: 0  Instance: /top
# 1
# Break in NamedBeginStat test_flow at top.sv line 31
exit
# End time: 16:43:48 on Feb 02,2020, Elapsed time: 0:00:27
# Errors: 0, Warnings: 0
